ស្វែងយល់អំពីរឿងរ៉ាវនានាដែលកំពុងតែកើតមានឡើងនាពេលបច្ចុប្បន្ននេះនៅក្នុងប្រទេសម្ពុជា និងតំបន់អាស៊ីទាំងមូលជាមួយកម្មវិធីព័ត៌មានរបស់វិទ្យុអាស៊ីសេរី ដែលទទួលបានពានរង្វាន់ខាងវិស័យសារព័ត៌មាន។ កម្មវិធីព័ត៌មានតាមទូរស័ព្ទដៃទើបនឹងកែលំអថ្មីឥតគិតថ្លៃរបស់វិទ្យុអាស៊ីសេរី ផ្តល់ជូនលោកអ្នកនាងនូវព័ត៌មានចុងក្រោយបំផុត ផតឃែស៍ វីដេអូ និងបទយកការណ៍ស៊ីជម្រៅ មិនថាលោកអ្នកនាងនៅទីកន្លែងណានោះឡើយ។
 
- ផ្សាយផ្ទាល់ព័ត៌មានប្រចាំថ្ងៃ និងតាម Podcasts
- រក្សាទុកអត្ថបទ វីដេអូ និងសំឡេង សម្រាប់ការប្រើប្រាស់ពេលដែលគ្មានសេវាអ៊ិនធើណឹត
- ចែករំលែកអត្ថបទទៅកាន់បណ្ដាញសង្គមនានា
- អាចសម្រួលទិន្នន័យឲ្យមានទំហំតូច និងងាយស្រួលប្រើប្រាស់ក្នុងទូរស័ព្ទដៃ
 
កម្មវិធីព័ត៌មានរបស់វិទ្យុអាស៊ីសេរី ត្រូវបានបង្កើតឡើងដោយគិតគូរអំពីបញ្ហាសិទ្ធិឯកជនភាព និងសុវត្ថិភាពរបស់លោកអ្នកនាងជាចម្បង។ សូមអានអត្ថបទគោលនយោបាយស្តីពីសិទ្ធិឯកជនភាពរបស់យើង ដើម្បីស្វែងយល់បន្ថែមអំពីបញ្ហានេះ(https://www.rfa.org/about/info/privacy-policy.html)។
